ula/simulation/qsim/alu.msim.vcd
$comment
	File created using the following command:
		vcd file alu.msim.vcd -direction
$end
$date
	Mon Sep 27 01:42:29 2021
$end
$version
	ModelSim Version 2020.1
$end
$timescale
	1ps
$end

$scope module alu_vhd_vec_tst $end
$var wire 1 ! A [4] $end
$var wire 1 " A [3] $end
$var wire 1 # A [2] $end
$var wire 1 $ A [1] $end
$var wire 1 % A [0] $end
$var wire 1 & B [4] $end
$var wire 1 ' B [3] $end
$var wire 1 ( B [2] $end
$var wire 1 ) B [1] $end
$var wire 1 * B [0] $end
$var wire 1 + display1 [6] $end
$var wire 1 , display1 [5] $end
$var wire 1 - display1 [4] $end
$var wire 1 . display1 [3] $end
$var wire 1 / display1 [2] $end
$var wire 1 0 display1 [1] $end
$var wire 1 1 display1 [0] $end
$var wire 1 2 display2 [6] $end
$var wire 1 3 display2 [5] $end
$var wire 1 4 display2 [4] $end
$var wire 1 5 display2 [3] $end
$var wire 1 6 display2 [2] $end
$var wire 1 7 display2 [1] $end
$var wire 1 8 display2 [0] $end
$var wire 1 9 overflow $end
$var wire 1 : selection [2] $end
$var wire 1 ; selection [1] $end
$var wire 1 < selection [0] $end
$var wire 1 = sinal $end
$var wire 1 > status $end

$scope module i1 $end
$var wire 1 ? gnd $end
$var wire 1 @ vcc $end
$var wire 1 A unknown $end
$var wire 1 B devoe $end
$var wire 1 C devclrn $end
$var wire 1 D devpor $end
$var wire 1 E ww_devoe $end
$var wire 1 F ww_devclrn $end
$var wire 1 G ww_devpor $end
$var wire 1 H ww_A [4] $end
$var wire 1 I ww_A [3] $end
$var wire 1 J ww_A [2] $end
$var wire 1 K ww_A [1] $end
$var wire 1 L ww_A [0] $end
$var wire 1 M ww_B [4] $end
$var wire 1 N ww_B [3] $end
$var wire 1 O ww_B [2] $end
$var wire 1 P ww_B [1] $end
$var wire 1 Q ww_B [0] $end
$var wire 1 R ww_selection [2] $end
$var wire 1 S ww_selection [1] $end
$var wire 1 T ww_selection [0] $end
$var wire 1 U ww_display1 [6] $end
$var wire 1 V ww_display1 [5] $end
$var wire 1 W ww_display1 [4] $end
$var wire 1 X ww_display1 [3] $end
$var wire 1 Y ww_display1 [2] $end
$var wire 1 Z ww_display1 [1] $end
$var wire 1 [ ww_display1 [0] $end
$var wire 1 \ ww_display2 [6] $end
$var wire 1 ] ww_display2 [5] $end
$var wire 1 ^ ww_display2 [4] $end
$var wire 1 _ ww_display2 [3] $end
$var wire 1 ` ww_display2 [2] $end
$var wire 1 a ww_display2 [1] $end
$var wire 1 b ww_display2 [0] $end
$var wire 1 c ww_overflow $end
$var wire 1 d ww_status $end
$var wire 1 e ww_sinal $end
$var wire 1 f \~QUARTUS_CREATED_GND~I_combout\ $end
$var wire 1 g \A[2]~input_o\ $end
$var wire 1 h \A[4]~input_o\ $end
$var wire 1 i \B[4]~input_o\ $end
$var wire 1 j \B[2]~input_o\ $end
$var wire 1 k \A[3]~input_o\ $end
$var wire 1 l \B[3]~input_o\ $end
$var wire 1 m \x3|x|x4|ogt~2_combout\ $end
$var wire 1 n \x3|x|x4|ogt~0_combout\ $end
$var wire 1 o \selection[0]~input_o\ $end
$var wire 1 p \B[1]~input_o\ $end
$var wire 1 q \A[1]~input_o\ $end
$var wire 1 r \A[0]~input_o\ $end
$var wire 1 s \B[0]~input_o\ $end
$var wire 1 t \x3|x|x4|ogt~1_combout\ $end
$var wire 1 u \Mux18~3_combout\ $end
$var wire 1 v \selection[2]~input_o\ $end
$var wire 1 w \selection[1]~input_o\ $end
$var wire 1 x \Mux13~0_combout\ $end
$var wire 1 y \x3|Selector5~0_combout\ $end
$var wire 1 z \x3|Selector0~0_combout\ $end
$var wire 1 { \x0|x2|vs~0_combout\ $end
$var wire 1 | \x0|x4|s~combout\ $end
$var wire 1 } \x1|xo|x2|vs~0_combout\ $end
$var wire 1 ~ \x1|x1|x2|vs~0_combout\ $end
$var wire 1 !! \x1|x1|x4|s~combout\ $end
$var wire 1 "! \Mux19~0_combout\ $end
$var wire 1 #! \Mux1~0_combout\ $end
$var wire 1 $! \Mux19~1_combout\ $end
$var wire 1 %! \x1|x1|x2|s~combout\ $end
$var wire 1 &! \x0|x1|vs~0_combout\ $end
$var wire 1 '! \Mux17~0_combout\ $end
$var wire 1 (! \Mux18~0_combout\ $end
$var wire 1 )! \Mux18~1_combout\ $end
$var wire 1 *! \x7|buff~0_combout\ $end
$var wire 1 +! \x8|comb~2_combout\ $end
$var wire 1 ,! \x8|comb~3_combout\ $end
$var wire 1 -! \Mux17~1_combout\ $end
$var wire 1 .! \x3|Selector3~0_combout\ $end
$var wire 1 /! \x3|Selector8~0_combout\ $end
$var wire 1 0! \x1|x1|x1|s~0_combout\ $end
$var wire 1 1! \Mux16~0_combout\ $end
$var wire 1 2! \Mux16~1_combout\ $end
$var wire 1 3! \x8|comb~4_combout\ $end
$var wire 1 4! \x8|comb~5_combout\ $end
$var wire 1 5! \x3|x|x4|ogt~3_combout\ $end
$var wire 1 6! \Mux15~0_combout\ $end
$var wire 1 7! \x8|comb~0_combout\ $end
$var wire 1 8! \x8|comb~1_combout\ $end
$var wire 1 9! \Mux18~4_combout\ $end
$var wire 1 :! \Mux1~1_combout\ $end
$var wire 1 ;! \Mux18~2_combout\ $end
$var wire 1 <! \Mux5~0_combout\ $end
$var wire 1 =! \Mux12~0_combout\ $end
$var wire 1 >! \Mux11~0_combout\ $end
$var wire 1 ?! \Mux10~0_combout\ $end
$var wire 1 @! \Mux10~1_combout\ $end
$var wire 1 A! \Mux9~0_combout\ $end
$var wire 1 B! \Mux8~0_combout\ $end
$var wire 1 C! \Mux8~1_combout\ $end
$var wire 1 D! \Mux7~0_combout\ $end
$var wire 1 E! \Mux6~0_combout\ $end
$var wire 1 F! \Mux1~2_combout\ $end
$var wire 1 G! \Mux1~3_combout\ $end
$var wire 1 H! \Mux1~4_combout\ $end
$var wire 1 I! \x8|s\ [4] $end
$var wire 1 J! \x8|s\ [3] $end
$var wire 1 K! \x8|s\ [2] $end
$var wire 1 L! \x8|s\ [1] $end
$var wire 1 M! \x8|s\ [0] $end
$var wire 1 N! \x3|ALT_INV_Selector5~0_combout\ $end
$var wire 1 O! \ALT_INV_Mux13~0_combout\ $end
$var wire 1 P! \x8|ALT_INV_comb~5_combout\ $end
$var wire 1 Q! \x8|ALT_INV_comb~4_combout\ $end
$var wire 1 R! \x8|ALT_INV_comb~3_combout\ $end
$var wire 1 S! \x8|ALT_INV_comb~2_combout\ $end
$var wire 1 T! \x8|ALT_INV_comb~1_combout\ $end
$var wire 1 U! \x8|ALT_INV_comb~0_combout\ $end
$var wire 1 V! \ALT_INV_Mux1~3_combout\ $end
$var wire 1 W! \ALT_INV_Mux1~2_combout\ $end
$var wire 1 X! \ALT_INV_Mux8~0_combout\ $end
$var wire 1 Y! \ALT_INV_Mux10~1_combout\ $end
$var wire 1 Z! \ALT_INV_Mux10~0_combout\ $end
$var wire 1 [! \x3|x|x4|ALT_INV_ogt~3_combout\ $end
$var wire 1 \! \ALT_INV_Mux16~0_combout\ $end
$var wire 1 ]! \x1|x1|x1|ALT_INV_s~0_combout\ $end
$var wire 1 ^! \x3|ALT_INV_Selector3~0_combout\ $end
$var wire 1 _! \x3|ALT_INV_Selector8~0_combout\ $end
$var wire 1 `! \ALT_INV_Mux17~1_combout\ $end
$var wire 1 a! \ALT_INV_Mux17~0_combout\ $end
$var wire 1 b! \x1|x1|x2|ALT_INV_s~combout\ $end
$var wire 1 c! \x0|x1|ALT_INV_vs~0_combout\ $end
$var wire 1 d! \x7|ALT_INV_buff~0_combout\ $end
$var wire 1 e! \ALT_INV_Mux18~2_combout\ $end
$var wire 1 f! \ALT_INV_Mux18~1_combout\ $end
$var wire 1 g! \ALT_INV_Mux18~0_combout\ $end
$var wire 1 h! \ALT_INV_Mux1~1_combout\ $end
$var wire 1 i! \ALT_INV_Mux19~1_combout\ $end
$var wire 1 j! \ALT_INV_Mux1~0_combout\ $end
$var wire 1 k! \ALT_INV_Mux19~0_combout\ $end
$var wire 1 l! \x3|x|x4|ALT_INV_ogt~2_combout\ $end
$var wire 1 m! \x3|x|x4|ALT_INV_ogt~1_combout\ $end
$var wire 1 n! \x3|x|x4|ALT_INV_ogt~0_combout\ $end
$var wire 1 o! \x1|x1|x4|ALT_INV_s~combout\ $end
$var wire 1 p! \x1|x1|x2|ALT_INV_vs~0_combout\ $end
$var wire 1 q! \x1|xo|x2|ALT_INV_vs~0_combout\ $end
$var wire 1 r! \x0|x4|ALT_INV_s~combout\ $end
$var wire 1 s! \x0|x2|ALT_INV_vs~0_combout\ $end
$var wire 1 t! \ALT_INV_Mux18~4_combout\ $end
$var wire 1 u! \ALT_INV_Mux16~1_combout\ $end
$var wire 1 v! \ALT_INV_Mux15~0_combout\ $end
$var wire 1 w! \ALT_INV_B[4]~input_o\ $end
$var wire 1 x! \ALT_INV_A[4]~input_o\ $end
$var wire 1 y! \ALT_INV_B[0]~input_o\ $end
$var wire 1 z! \ALT_INV_A[0]~input_o\ $end
$var wire 1 {! \ALT_INV_B[1]~input_o\ $end
$var wire 1 |! \ALT_INV_A[1]~input_o\ $end
$var wire 1 }! \ALT_INV_B[2]~input_o\ $end
$var wire 1 ~! \ALT_INV_A[2]~input_o\ $end
$var wire 1 !" \ALT_INV_B[3]~input_o\ $end
$var wire 1 "" \ALT_INV_A[3]~input_o\ $end
$var wire 1 #" \ALT_INV_selection[1]~input_o\ $end
$var wire 1 $" \ALT_INV_selection[0]~input_o\ $end
$var wire 1 %" \ALT_INV_selection[2]~input_o\ $end
$var wire 1 &" \x8|ALT_INV_s\ [3] $end
$var wire 1 '" \x8|ALT_INV_s\ [2] $end
$var wire 1 (" \x8|ALT_INV_s\ [1] $end
$var wire 1 )" \x8|ALT_INV_s\ [0] $end
$var wire 1 *" \x3|ALT_INV_Selector0~0_combout\ $end
$upscope $end
$upscope $end
$enddefinitions $end
#0
$dumpvars
09
0=
z>
0?
1@
xA
1B
1C
1D
1E
1F
1G
0c
zd
0e
xf
0g
0h
0i
0j
0k
0l
0m
1n
0o
0p
0q
0r
0s
0t
0u
0v
0w
0x
0y
1z
0{
0|
0}
0~
0!!
0"!
0#!
0$!
0%!
0&!
0'!
0(!
0)!
1*!
1+!
0,!
0-!
0.!
0/!
00!
01!
02!
13!
04!
05!
06!
17!
08!
09!
1:!
0;!
1<!
0=!
1>!
0?!
0@!
1A!
0B!
1C!
1D!
1E!
1F!
0G!
0H!
1N!
1O!
1P!
0Q!
1R!
0S!
1T!
0U!
1V!
0W!
1X!
1Y!
1Z!
1[!
1\!
1]!
1^!
1_!
1`!
1a!
1b!
1c!
0d!
1e!
1f!
1g!
0h!
1i!
1j!
1k!
1l!
1m!
0n!
1o!
1p!
1q!
1r!
1s!
1t!
1u!
1v!
1w!
1x!
1y!
1z!
1{!
1|!
1}!
1~!
1!"
1""
1#"
1$"
1%"
0*"
0!
0"
0#
0$
0%
0&
0'
0(
0)
0*
0:
0;
0<
1+
1,
1-
1.
1/
10
01
12
13
14
15
16
17
08
0H
0I
0J
0K
0L
0M
0N
0O
0P
0Q
0R
0S
0T
1U
1V
1W
1X
1Y
1Z
0[
1\
1]
1^
1_
1`
1a
0b
xI!
0J!
0K!
xL!
0M!
1&"
1'"
x("
1)"
$end
#3500
1:
1R
1v
0%"
1x
1)!
0f!
0O!
0d
ze
0>
z=
#3750
1&
1M
1i
0w!
1m
0n
0z
1|
1!!
0o!
0r!
1*"
1n!
0l!
1u
15!
1"!
0k!
0[!
1d
1>
#4000
1;
1S
1w
0#"
0x
1O!
zd
0e
z>
0=
#4500
1<
1T
1o
0$"
0u
0"!
1(!
0)!
1f!
0g!
1k!
#5000
1!
1H
1h
0x!
0m
1n
1y
0|
0!!
1#!
0+!
03!
07!
0F!
1G!
0V!
1W!
1U!
1Q!
1S!
0j!
1o!
1r!
0N!
0n!
1l!
1u
05!
1"!
1H!
0k!
1[!
1c
19
#7000
0:
0R
0v
1%"
1$!
0(!
0H!
1g!
0i!
0<!
1=!
0D!
0c
1e
09
1=
0]
1b
0Z
0Y
0X
0U
18
03
00
0/
0.
0+
#7500
0&
0M
0i
1w!
0n
0y
1|
1!!
0G!
1V!
0o!
0r!
1N!
1n!
0"!
1k!
0$!
1i!
1<!
0=!
1D!
0e
0=
1]
0b
1Z
1Y
1X
1U
08
13
10
1/
1.
1+
#8000
0;
0S
0w
1#"
1"!
1H!
0k!
1$!
0i!
1c
0<!
1=!
0D!
19
1e
1=
0]
1b
0Z
0Y
0X
0U
18
03
00
0/
0.
0+
#9000
0<
0T
0o
1$"
0u
0H!
0c
09
#10000
0!
1"
1I
0H
0h
1k
0""
1x!
1z
1m
1n
0|
0!!
0#!
19!
0t!
1j!
1o!
1r!
0n!
0l!
0*"
1u
15!
0"!
1;!
0e!
1k!
0[!
0$!
1<!
1D!
1i!
1]
1Z
1Y
1X
1U
0e
13
10
1/
1.
1+
0=
#10500
1:
1R
1v
0%"
1x
1)!
0f!
0O!
1d
ze
1>
z=
#11000
1(
1O
1j
0}!
1}
1%!
1'!
0a!
0b!
0q!
#11250
1&
1M
1i
0w!
0n
0z
1|
1!!
0o!
0r!
1*"
1n!
1"!
0k!
#11500
1'
1N
1l
0!"
0|
0!!
09!
1t!
1o!
1r!
0"!
1k!
#12000
1;
1S
1w
0#"
0x
1"!
19!
0t!
0k!
1O!
zd
0e
z>
0=
#12500
1$
1K
1q
0|!
0*!
1/!
10!
12!
0:!
1h!
0u!
0]!
0_!
1d!
0<!
0=!
0b
0Z
0Y
0X
0U
08
00
0/
0.
0+
#13500
1<
1T
1o
0$"
0u
0"!
1(!
0)!
11!
02!
1H!
1u!
0\!
1f!
0g!
1k!
0;!
1<!
1=!
1e!
1c
0=!
19
1b
1Z
1Y
1X
1U
18
10
1/
1.
1+
0b
08
#14000
0:
0R
0v
1%"
0(!
1)!
12!
0H!
0u!
0f!
1g!
1;!
1=!
0>!
1B!
0X!
0e!
0c
0<!
0=!
1>!
0B!
0C!
09
1X!
0a
1b
1C!
18
07
0^
1a
0b
0Z
0Y
0X
0U
08
17
04
00
0/
0.
0+
1^
14
#15000
0&
1!
1#
0M
1J
1H
1h
1g
0i
1w!
0~!
0x!
1t
1{
1~
0%!
1,!
1-!
13!
17!
1F!
0m
1l!
0W!
0U!
0Q!
0`!
0R!
1b!
0p!
0s!
0m!
1!!
1K!
1=!
1?!
0A!
0E!
1u
0)!
1.!
0/!
05!
1[!
1_!
0^!
1f!
0Z!
0'"
0o!
1@!
01!
1\!
0Y!
0\
0_
1b
18
05
02
02!
1u!
0`
0>!
0?!
1A!
1B!
1E!
06
0X!
1Z!
0@!
0C!
1Y!
1\
1_
0a
07
15
12
0^
1`
04
16
#16000
0;
0S
0w
1#"
1"!
0'!
11!
09!
1t!
0\!
1a!
0k!
1$!
0-!
0;!
12!
1e!
1`!
0i!
0u!
1>!
0B!
0D!
1?!
0A!
1D!
0E!
1X!
1e
0Z!
1C!
1=
1@!
0]
1a
0Y!
0\
1]
0_
17
03
05
13
02
1^
14
0`
06
#16500
1)
1P
1p
0{!
0t
1&!
1/!
00!
1]!
0_!
0c!
1m!
01!
1\!
02!
1u!
0?!
1A!
0D!
1E!
1Z!
0@!
1Y!
1\
0]
1_
15
03
12
1`
16
#17500
1:
1R
1v
0%"
1x
0$!
1(!
0g!
1i!
0O!
1<!
0=!
1D!
1-!
0`!
0e
1d
ze
1=!
1?!
0A!
0E!
0=
1>
0Z!
z=
1]
0b
1Z
1Y
1X
1U
1@!
08
13
10
1/
1.
1+
0Y!
0\
0_
1b
18
05
02
0`
06
#18000
0<
0T
0o
1$"
0u
0"!
1'!
1)!
19!
0t!
0f!
0a!
1k!
0-!
1`!
0d
0=!
0?!
1A!
1E!
0>
1Z!
0@!
1Y!
1\
1_
0b
08
15
12
1`
16
#18750
1&
1M
1i
0w!
1n
1y
1|
0!!
1o!
0r!
0N!
0n!
1"!
0k!
#20000
1;
0!
0"
1*
1S
0I
0H
1Q
1s
0h
0k
1w
0#"
1""
1x!
0y!
0~
1%!
0y
0(!
1m
0n
0|
0,!
03!
07!
1;!
0F!
0x
11!
12!
0u!
0\!
1O!
1W!
0e!
1U!
1Q!
1R!
1r!
1n!
0l!
1g!
1N!
0b!
1p!
1-!
0;!
1u
15!
0<!
0[!
1e!
0`!
zd
0e
1<!
1=!
0D!
z>
0=
0Z
0Y
0X
0U
00
0/
0.
0+
0]
1b
1Z
1Y
1X
1U
18
03
10
1/
1.
1+
#21000
0:
0R
0v
1%"
1$!
0)!
16!
0v!
1f!
0i!
1;!
1@!
1D!
0Y!
0e!
1e
0=!
0>!
0A!
1B!
0E!
1=
0X!
1]
0`
13
06
0\
0_
0a
0b
08
07
05
02
#22000
0(
0O
0j
1}!
1~
0%!
0'!
1a!
1b!
0p!
0-!
1`!
1=!
1>!
1A!
0B!
0D!
1E!
1X!
1\
0]
1_
1a
1b
18
17
15
03
12
#22500
0&
1<
0M
1T
1o
0i
1w!
0$"
0u
0"!
1)!
06!
0m
1z
1|
1!!
1G!
0V!
0o!
0r!
0*"
1l!
1v!
0f!
1k!
0$!
1-!
0;!
0@!
1u
0)!
05!
1[!
1f!
1Y!
1e!
0`!
1i!
0-!
1;!
16!
0e!
1`!
0e
0v!
1`
0<!
0=!
1D!
0=
0>!
1@!
0A!
0E!
16
0Y!
1]
0b
0Z
0Y
0X
0U
0\
0_
0a
08
13
00
0/
0.
0+
0`
07
05
02
06
#23000
0'
0N
0l
1!"
1m
1n
0|
0!!
09!
0G!
1V!
1t!
1o!
1r!
0n!
0l!
0u
1)!
15!
0;!
1e!
0[!
0f!
1-!
1<!
1=!
1A!
1B!
1E!
06!
0X!
0`!
1v!
0=!
0A!
0B!
1=!
1>!
0@!
1A!
0C!
0D!
1X!
1\
1_
1b
1Z
1Y
1X
1U
1Y!
1C!
18
15
12
10
1/
1.
1+
0_
0b
0]
0^
1_
1a
1b
08
05
1`
18
17
15
04
03
1^
16
14
#24000
0;
0S
0w
1#"
0)!
16!
0v!
1f!
0-!
0=!
0>!
1@!
0A!
1D!
0Y!
1`!
1=!
1A!
1B!
0X!
1]
0_
0a
0b
0`
08
07
05
13
06
1_
1b
18
15
#24500
1:
1R
1v
0%"
1x
1(!
02!
1u!
0g!
0O!
1-!
0=!
0A!
0B!
0E!
1X!
0`!
0d
ze
1=!
1>!
1?!
1A!
0D!
1E!
0>
0Z!
z=
0\
0_
0b
08
05
02
1\
0]
1_
1a
1b
18
17
15
03
12
#25000
1!
0$
1%
1L
0K
1H
1h
0q
1r
0z!
1|!
0x!
0m
0n
0z
1|
1!!
0/!
06!
1v!
1_!
0o!
0r!
1*"
1n!
1l!
1u
0.!
1/!
05!
1"!
0A!
1D!
0E!
0k!
1[!
0_!
1^!
0\
1]
0_
1d
05
13
02
1>
#26250
1&
1M
1i
0w!
1m
1n
1y
0|
0!!
1G!
0V!
1o!
1r!
0N!
0n!
0l!
0u
1.!
0/!
15!
0"!
1k!
0[!
1_!
0^!
0d
0>
#27000
0<
0T
0o
1$"
1u
1)!
01!
19!
0t!
1\!
0f!
0-!
1;!
0e!
1`!
1d
0?!
1A!
1E!
1>
1Z!
0@!
1Y!
1\
1_
15
12
1`
16
#28000
0:
1;
1S
0R
0v
1w
0#"
1%"
0(!
0x
1"!
0)!
11!
16!
09!
1t!
0v!
0\!
1f!
0k!
1O!
1g!
1$!
1@!
0;!
12!
1e!
0Y!
0i!
zd
0u!
0e
0<!
0D!
z>
0>!
1?!
1D!
0=
1e
0Z!
0`
1=
06
0]
0Z
0Y
0X
0U
1]
0a
03
00
0/
0.
0+
07
13
#30000
0&
0!
1"
0#
0M
0J
1I
0H
0h
1k
0g
0i
1w!
1~!
0""
1x!
0{
0~
1%!
0y
1z
1|
0r!
0*"
1N!
0b!
1p!
1s!
0|
0G!
0"!
1k!
1V!
1r!
0$!
1i!
1<!
0?!
1B!
0X!
1Z!
0e
0=
1Z
1Y
1X
1U
10
1/
1.
1+
#31500
1:
1<
1T
1R
1v
1o
0$"
0%"
0u
1(!
01!
02!
06!
1H!
1v!
1u!
1\!
0g!
1-!
0B!
0=!
1>!
0@!
0C!
1Y!
1X!
0`!
1c
1=!
1?!
0A!
0E!
1C!
19
0Z!
0^
1a
0b
1`
1@!
08
17
04
0Y!
16
1^
0\
0_
1b
18
05
14
02
0`
06
#32000
0;
0S
0w
1#"
1x
1'!
11!
0H!
0\!
0a!
0O!
0c
0d
ze
09
0>
z=
#33000
1(
0)
0P
1O
1j
0p
1{!
0}!
0&!
0.!
10!
0]!
1^!
1c!
01!
1\!
#33750
1&
1M
1i
0w!
0n
0z
1|
1!!
0o!
0r!
1*"
1n!
1"!
0k!
#34500
1'
1N
1l
0!"
0|
0!!
19!
0t!
1o!
1r!
0"!
1k!
#35000
0:
1!
0R
1H
1h
0v
1%"
0x!
0m
1n
1y
1|
1!!
0x
0(!
1g!
1O!
0o!
0r!
0N!
0n!
1l!
1u
05!
1"!
1;!
0e!
0k!
1[!
zd
0e
1$!
0<!
0>!
0?!
1A!
1B!
1E!
z>
0X!
1Z!
0i!
0=
1<!
1>!
1?!
0A!
0B!
0E!
0@!
0C!
1Y!
1X!
0Z!
1\
1_
0a
0Z
0Y
0X
0U
1e
1@!
1C!
07
15
12
00
0/
0.
0+
1=
0Y!
0^
0\
0_
1a
1Z
1Y
1X
1U
1`
17
05
04
02
10
1/
1.
1+
16
1^
0`
14
06
#36000
1;
0<
0T
1S
1w
0o
1$"
0#"
0u
1)!
16!
0v!
0f!
0-!
0>!
1A!
1E!
1`!
0=!
0?!
0A!
1Z!
1\
1_
0a
07
15
12
0_
0b
08
05
#37500
0&
1$
0M
1K
1q
0i
1w!
0|!
1{
1&!
1.!
00!
0n
0y
0|
0!!
1o!
1r!
1N!
1n!
1]!
0^!
0c!
0s!
11!
0\!
12!
0u!
1=!
1>!
1A!
0D!
0]
1_
1a
1b
18
17
15
03
#38500
1:
1R
1v
0%"
0$!
1(!
02!
1u!
0g!
1i!
1-!
0;!
1D!
1e!
0`!
0e
1?!
0D!
0=
0Z!
1]
13
0]
03
#40000
0;
0!
0"
0*
0S
0I
0H
0Q
0s
0h
0k
0w
1#"
1""
1x!
1y!
0{
0&!
10!
1z
0(!
1|
1!!
1+!
14!
18!
1;!
1F!
1G!
1x
0"!
0'!
01!
09!
1t!
1\!
1a!
1k!
0O!
0V!
0W!
0e!
0T!
0P!
0S!
0o!
0r!
1g!
0*"
0]!
1c!
1s!
0|
0G!
1'!
11!
1"!
0K!
1M!
1J!
0<!
0>!
0?!
1B!
1D!
0-!
0;!
19!
1e!
1`!
0X!
1Z!
0&"
0)"
1'"
0k!
0\!
0a!
1V!
1r!
0d
0t!
ze
0"!
1<!
0=!
0A!
0B!
0E!
0>
1X!
1k!
z=
1]
0a
0Z
0Y
0X
0U
07
13
00
0/
0.
0+
0\
0_
0b
1Z
1Y
1X
1U
08
05
02
10
1/
1.
1+
#40500
1<
1T
1o
0$"
1u
1"!
1(!
0)!
09!
1t!
1f!
0g!
0k!
1;!
0e!
1d
1=!
1>!
1A!
1E!
1>
1\
1_
1a
1b
18
17
15
12
#41250
1&
1M
1i
0w!
1m
0z
1|
0!!
1o!
0r!
1*"
0l!
0u
0.!
1/!
15!
0"!
1k!
0[!
0_!
1^!
0d
0>
#42000
0:
0R
0v
1%"
0x
0(!
12!
0u!
1g!
1O!
1-!
0;!
0<!
0=!
0>!
0A!
0E!
1e!
0`!
zd
0e
1<!
1E!
z>
0=
0\
0_
0a
0b
0Z
0Y
0X
0U
08
07
05
02
00
0/
0.
0+
1\
1Z
1Y
1X
1U
12
10
1/
1.
1+
#44000
1;
0(
1S
0O
0j
1w
0#"
1}!
1t
0}
0%!
0'!
1)!
19!
0t!
0f!
1a!
1b!
1q!
0m!
0-!
1`!
1=!
1A!
1B!
0X!
1_
1b
18
15
#45000
0&
0<
1!
1#
0M
0T
1J
1H
1h
1g
0o
0i
1w!
1$"
0~!
0x!
1%!
0+!
1-!
04!
08!
0F!
1u
1"!
0)!
01!
06!
0m
1l!
1v!
1\!
1f!
0k!
1W!
1T!
1P!
0`!
1S!
0b!
0B!
1$!
0-!
1;!
1>!
0@!
0C!
0D!
0u
1)!
1.!
0/!
05!
02!
1[!
1_!
0^!
0f!
1Y!
0e!
1`!
0i!
1X!
1u!
1C!
1-!
0;!
11!
16!
1D!
0\!
1e!
0`!
0]
0^
1a
1e
0v!
1`
0<!
0>!
1B!
17
04
03
1=
12!
0=!
1@!
0A!
0E!
0X!
16
1^
0Y!
0u!
1]
14
1<!
1=!
1>!
1A!
0B!
1E!
13
0a
0Z
0Y
0X
0U
1X!
0\
0_
0b
07
00
0/
0.
0+
0`
08
05
02
06
1\
1_
1a
1b
1Z
1Y
1X
1U
18
17
15
12
10
1/
1.
1+
#45500
1:
1R
1v
0%"
0$!
1(!
02!
1u!
0g!
1i!
0-!
1;!
1?!
0D!
0Z!
0e!
1`!
0e
0?!
1D!
0=
1Z!
0]
03
1]
13
#46000
0'
0N
0l
1!"
1!!
09!
1t!
0o!
#48000
0;
0S
0w
1#"
1x
1'!
0a!
0O!
0d
ze
0>
z=
#48750
1&
1M
1i
0w!
1m
1n
1y
0|
0!!
1G!
0V!
1o!
1r!
0N!
0n!
0l!
1u
0.!
1/!
15!
0"!
1k!
0[!
0_!
1^!
1d
1>
#49000
0:
0R
0v
1%"
0x
0(!
0)!
12!
1H!
0u!
1f!
1g!
1O!
1-!
0;!
0<!
0=!
0>!
0A!
0E!
1e!
0`!
1c
zd
0e
1<!
1E!
19
z>
0=
0\
0_
0a
0b
0Z
0Y
0X
0U
08
07
05
02
00
0/
0.
0+
1\
1Z
1Y
1X
1U
12
10
1/
1.
1+
#49500
1<
1)
1T
1P
1p
1o
0$"
0{!
1{
1}
1~
1&!
1.!
00!
0u
0H!
1]!
0^!
0c!
0p!
0q!
0s!
01!
1\!
0c
09
02!
1u!
1=!
1>!
1?!
1A!
0D!
0Z!
0]
1_
1a
1b
18
17
15
03
#50000
0!
1"
0$
0%
0L
0K
1I
0H
0h
1k
0q
0r
1z!
1|!
0""
1x!
0y
0n
1!!
19!
0G!
0/!
0t
0{
0%!
0&!
1*!
10!
06!
1v!
0]!
0d!
1c!
1b!
1s!
1m!
1_!
1V!
0t!
0o!
1n!
1N!
1"!
1;!
1|
0'!
11!
0A!
1D!
0E!
0\!
1a!
0r!
0e!
0k!
1$!
0<!
0>!
0?!
1A!
1B!
1E!
0-!
12!
1`!
0X!
1Z!
0i!
0\
1]
0_
0u!
0@!
0C!
1<!
1>!
0B!
05
13
02
0D!
1X!
1Y!
1\
1_
0a
0Z
0Y
0X
0U
1e
1C!
07
15
12
00
0/
0.
0+
1=
1a
1Z
1Y
1X
1U
0^
1`
0]
17
04
10
1/
1.
1+
16
03
1^
14
#52000
1;
1S
1w
0#"
0"!
1)!
01!
09!
1t!
1\!
0f!
1k!
0$!
1-!
02!
0`!
1i!
1u!
0<!
1?!
0A!
1D!
0E!
0>!
0?!
1A!
1B!
1E!
0Z!
0e
0X!
1Z!
1@!
0=
0@!
0C!
0Y!
0\
1]
0_
0Z
0Y
0X
0U
1Y!
1\
1_
0a
05
13
02
00
0/
0.
0+
07
15
12
0`
0^
1`
06
04
16
#52500
1:
0&
1R
0M
0i
1v
0%"
1w!
1n
1z
0|
0!!
1(!
0)!
16!
1H!
0v!
1f!
0g!
1o!
1r!
0*"
0n!
0-!
1@!
1C!
0Y!
1`!
1c
1<!
1>!
0B!
19
1X!
1^
0`
14
06
1a
1Z
1Y
1X
1U
17
10
1/
1.
1+
#54000
0<
0T
0o
1$"
1u
0(!
1)!
11!
06!
0H!
1v!
0\!
0f!
1g!
1-!
0@!
1Y!
0`!
0c
0<!
0>!
1B!
09
0X!
1`
0C!
16
0a
0Z
0Y
0X
0U
07
00
0/
0.
0+
0^
04
#55000
1!
1(
1H
1O
1j
1h
0x!
0}!
1{
0~
1%!
1'!
0m
0n
0z
1|
1!!
1(!
0g!
0o!
0r!
1*"
1n!
1l!
0a!
0b!
1p!
0s!
0|
0u
0.!
1/!
05!
1"!
0;!
1e!
0k!
1[!
0_!
1^!
1r!
01!
1<!
1>!
1?!
0A!
0B!
0E!
1X!
0Z!
1\!
1@!
1C!
0Y!
0\
0_
1a
1Z
1Y
1X
1U
17
05
02
10
1/
1.
1+
1^
0`
14
06
#56000
0:
0;
0S
0R
0v
0w
1#"
1%"
0(!
0"!
1$!
0'!
0)!
11!
0\!
1f!
1a!
0i!
1k!
1g!
0$!
0<!
0>!
0?!
1A!
1B!
1E!
0-!
12!
1`!
0X!
1Z!
1i!
1e
0u!
0@!
0C!
1<!
0=!
1>!
0B!
1=
1=!
0>!
1B!
1X!
1Y!
1\
1_
0a
0Z
0Y
0X
0U
0e
0X!
1C!
07
15
12
00
0/
0.
0+
0=
0C!
1a
0b
1Z
1Y
1X
1U
0^
1`
0a
1b
08
17
04
10
1/
1.
1+
18
07
16
1^
0^
14
04
#56250
1&
1M
1i
0w!
1m
1n
1y
1|
0!!
1o!
0r!
0N!
0n!
0l!
1u
1.!
0/!
15!
1"!
0k!
0[!
1_!
0^!
1$!
0i!
0<!
1>!
1?!
0A!
0B!
0E!
1X!
0Z!
1e
1@!
1C!
1=
0Y!
0\
0_
1a
0Z
0Y
0X
0U
17
05
02
00
0/
0.
0+
1^
0`
14
06
#57500
1'
1N
1l
0!"
0m
1!!
19!
0t!
0o!
1l!
0u
0.!
1/!
05!
1;!
0e!
1[!
0_!
1^!
1<!
0?!
1A!
0D!
1E!
1Z!
0@!
1Y!
1\
0]
1_
1Z
1Y
1X
1U
15
03
12
10
1/
1.
1+
1`
16
